{
  "tools": {
    "dotnet": "3.0.100-preview7-012630"
  },
  "msbuild-sdks": {
    "Microsoft.DotNet.Arcade.Sdk": "1.0.0-beta.19352.7",
    "Microsoft.DotNet.Helix.Sdk": "2.0.0-beta.19352.7",
    "Microsoft.DotNet.Build.Tasks.Configuration": "1.0.0-beta.19352.7",
    "Microsoft.DotNet.CoreFxTesting": "1.0.0-beta.19352.7",
    "FIX-85B6-MERGE-9C38-CONFLICT": "1.0.0",
    "Microsoft.NET.Sdk.IL": "3.0.0-preview8.19352.2"
  }
}
